{
    "pagination": {
        "last_visible_page": 92,
        "has_next_page": true,
        "current_page": 1,
        "items": {
            "count": 1,
            "total": 92,
            "per_page": 1
        }
    },
    "data": [
        {
            "mal_id": 167,
            "url": "https://myanimelist.net/manga/167/Chronicles_of_the_Cursed_Sword",
            "images": {
                "jpg": {
                    "image_url": "https://cdn.myanimelist.net/images/manga/2/243134.jpg",
                    "small_image_url": "https://cdn.myanimelist.net/images/manga/2/243134t.jpg",
                    "large_image_url": "https://cdn.myanimelist.net/images/manga/2/243134l.jpg"
                },
                "webp": {
                    "image_url": "https://cdn.myanimelist.net/images/manga/2/243134.webp",
                    "small_image_url": "https://cdn.myanimelist.net/images/manga/2/243134t.webp",
                    "large_image_url": "https://cdn.myanimelist.net/images/manga/2/243134l.webp"
                }
            },
            "approved": true,
            "titles": [
                {
                    "type": "Default",
                    "title": "Chronicles of the Cursed Sword"
                },
                {
                    "type": "Synonym",
                    "title": "Pageomgi"
                },
                {
                    "type": "Synonym",
                    "title": "The Legend of the Sword"
                },
                {
                    "type": "Synonym",
                    "title": "The Record of Destroying the Sword"
                },
                {
                    "type": "Japanese",
                    "title": "\ud30c\uac80\uae30"
                },
                {
                    "type": "English",
                    "title": "Chronicles of the Cursed Sword"
                }
            ],
            "title": "Chronicles of the Cursed Sword",
            "title_english": "Chronicles of the Cursed Sword",
            "title_japanese": "\ud30c\uac80\uae30",
            "title_synonyms": [
                "Pageomgi",
                "The Legend of the Sword",
                "The Record of Destroying the Sword"
            ],
            "type": "Manhwa",
            "chapters": 163,
            "volumes": 37,
            "status": "Finished",
            "publishing": false,
            "published": {
                "from": "1999-01-01T00:00:00+00:00",
                "to": "2009-01-01T00:00:00+00:00",
                "prop": {
                    "from": {
                        "day": 1,
                        "month": 1,
                        "year": 1999
                    },
                    "to": {
                        "day": 1,
                        "month": 1,
                        "year": 2009
                    }
                },
                "string": "1999 to 2009"
            },
            "score": 6.96,
            "scored": 6.96,
            "scored_by": 727,
            "rank": 9655,
            "popularity": 8755,
            "members": 2289,
            "favorites": 51,
            "synopsis": "Rey Yan was an orphan with no home, no skills, and no purpose. But when he comes upon the PaSa sword, a cursed blade made from the bones of the demon king, he suddenly finds himself with the power to be a great hero. The sword's creator is the evil Shiyan, the royal vizier who needs the sword to assist him in releasing his ancestor, the demon king. (Source: Tokyopop)",
            "background": "Chronicles of the Cursed Sword was published in English by Tokyopop from July 15, 2003 to August 5, 2008 and a 3-in-1 omnibus edition on April 8, 2008. 22 volumes were published before release was discontinued.",
            "authors": [
                {
                    "mal_id": 2101,
                    "type": "people",
                    "name": "Yeo, Beop-Ryong",
                    "url": "https://myanimelist.net/people/2101/Beop-Ryong_Yeo"
                },
                {
                    "mal_id": 2187,
                    "type": "people",
                    "name": "Park, Hui-Jin",
                    "url": "https://myanimelist.net/people/2187/Hui-Jin_Park"
                }
            ],
            "serializations": [
                {
                    "mal_id": 94,
                    "type": "manga",
                    "name": "JuniorChamp",
                    "url": "https://myanimelist.net/manga/magazine/94/JuniorChamp"
                }
            ],
            "genres": [
                {
                    "mal_id": 1,
                    "type": "manga",
                    "name": "Action",
                    "url": "https://myanimelist.net/manga/genre/1/Action"
                },
                {
                    "mal_id": 2,
                    "type": "manga",
                    "name": "Adventure",
                    "url": "https://myanimelist.net/manga/genre/2/Adventure"
                },
                {
                    "mal_id": 8,
                    "type": "manga",
                    "name": "Drama",
                    "url": "https://myanimelist.net/manga/genre/8/Drama"
                },
                {
                    "mal_id": 10,
                    "type": "manga",
                    "name": "Fantasy",
                    "url": "https://myanimelist.net/manga/genre/10/Fantasy"
                }
            ],
            "explicit_genres": [],
            "themes": [
                {
                    "mal_id": 17,
                    "type": "manga",
                    "name": "Martial Arts",
                    "url": "https://myanimelist.net/manga/genre/17/Martial_Arts"
                }
            ],
            "demographics": [
                {
                    "mal_id": 27,
                    "type": "manga",
                    "name": "Shounen",
                    "url": "https://myanimelist.net/manga/genre/27/Shounen"
                }
            ]
        }
    ]
}